{
  "compilerOptions": {
    "module": "esnext",
    "target": "esnext",
    "strict": true,
    "baseUrl": ".",
    "paths": {
      "@/*": [
        "./src/*"
      ],
    }
  },
  "exclude": [
    "dist",
    "tmp",
    "temp",
    "jspm_packages",
    "bower_components",
    "public"
  ],
  "include": [
    "src/**/*.vue",
    "src/**/*"
  ]
}
